Convert text to a data frame with coordinates of Morse code segments — text_to_morse_segments • morsecode
…
text_to_morse_segments("SOS SOS SOS", line_length = 10)

#> # A tibble: 27 x 13
#> # Groups:   line_num [2]
#>         x    xend     y  yend group letter symbol symbol_length cum_length   pos
#>     <dbl>   <dbl> <dbl> <dbl> <dbl> <chr>  <chr>          <dbl>      <dbl> <int>
#>  1 0      0.00606  -0.5  -0.5     2 S      .                  1          1     1
#>  2 0.0121 0.0182   -0.5  -0.5     4 S      .                  1          2     1
#>  3 0.0242 0.0303   -0.5  -0.5     6 S      .                  1          3     1
#>  4 0.0364 0.0545   -0.5  -0.5     8 O      -                  3          6     2
#>  5 0.0606 0.0788   -0.5  -0.5    10 O      -                  3          9     2
#>  6 0.0848 0.103    -0.5  -0.5    12 O      -                  3         12     2
#>  7 0.109  0.115    -0.5  -0.5    14 S      .                  1         13     3
#>  8 0.121  0.127    -0.5  -0.5    16 S      .                  1         14     3
#>  9 0.133  0.139    -0.5  -0.5    18 S      .                  1         15     3
#> 10 0.182  0.188    -0.5  -0.5    20 S      .                  1         16     4
#> # ... with 17 more rows, and 3 more variables: linebreak <int>, line_num <dbl>,
#> #   line_length <dbl>
…
